{
    "tasks": [
        {
            "id": 0,
            "title": "Réviser vue.js",
            "isComplete": false
        },
        {
            "id": 1,
            "title": "Finir écriture partie squelette FYC",
            "isComplete": true 
        },
        {
            "id": 2,
            "title": "Avancer projet Web Temps Réel",
            "isComplete": true
        }
    ]
}